﻿[
  {
    "id": "orders",
    "version": "1.0.0",
    "meta_data": {
      "type": "object",
      "definitions": {
        "packages": {
          "type": "object",
          "properties": {
            "id": {
              "type": "string"
            },
            "type": {
              "type": "string"
            },
            "total_price": {
              "type": "number"
            },
            "price": {
              "type": "number"
            },
            "tax": {
              "type": "number"
            },
            "name": {
              "type": "string"
            },
            "quantity": {
              "type": "number"
            }
          }
        }
      },
      "properties": {
        "id": {
          "type": "string"
        },
        "packages": {
          "type": "array",
          "items": {
            "$ref": "#/definitions/packages"
          }
        },
        "price": {
          "type": "number"
        },
        "tax": {
          "type": "number"
        },
        "voucher": {
          "type": "object"
        },
        "patients": {
          "type": "object"
        }
      },
      "required": [ "id", "packages", "price", "tax", "patients" ]
    },
    "modules_information": {
      "identity": "id",
      "is_common_module": false,
      "unique_keys_contraints": [ "id" ],
      "enable_all_data_request": false,
      "auto_increment": {
        "start": 0,
        "prefix": "ORDERS-HC-",
        "suffix": "",
        "format": "",
        "field_name": "id",
        "auto_generation_field_id": "orders_id",
        "length": 10
      }
    }
  },
  {
    "id": "vouchers",
    "version": "1.0.0",
    "meta_data": {
      "type": "object",
      "properties": {
        "id": {
          "type": "string"
        },
        "type": {
          "type": "string"
        },
        "conditions": {
          "type": "objects"
        },
        "description": {
          "type": "string"
        }
      },
      "required": [ "id", "name", "type", "conditions" ]
    },
    "modules_information": {
      "identity": "id",
      "is_common_module": false,
      "unique_keys_contraints": [ "id" ],
      "enable_all_data_request": false,
      "auto_increment": {
        "start": 0,
        "prefix": "VOUCHERS-",
        "suffix": "",
        "format": "",
        "field_name": "id",
        "auto_generation_field_id": "vouchers_id",
        "length": 20
      }
    }
  },
  {
    "id": "product_packages",
    "version": "1.0.0",
    "meta_data": {
      "type": "object",
      "properties": {
        "id": {
          "type": "string"
        },
        "type": {
          "type": "string"
        },
        "price": {
          "type": "number"
        },
        "tax": {
          "type": "number"
        },
        "name": {
          "type": "string"
        },
        "description": {
          "type": "string"
        }
      },
      "required": [ "id", "name", "type", "price", "tax" ]
    },
    "modules_information": {
      "identity": "id",
      "is_common_module": false,
      "unique_keys_contraints": [ "id" ],
      "enable_all_data_request": false,
      "auto_increment": {
        "start": 0,
        "prefix": "PACKAGES-",
        "suffix": "",
        "format": "",
        "field_name": "id",
        "auto_generation_field_id": "product_packages_id",
        "length": 4
      }
    }
  },
  {
    "id": "product_packages_type",
    "version": "1.0.0",
    "meta_data": {
      "type": "object",
      "properties": {
        "id": {
          "type": "string"
        },
        "name": {
          "type": "string"
        },
        "description": {
          "type": "string"
        }
      },
      "required": [ "id", "name" ]

    },
    "modules_information": {
      "identity": "id",
      "is_common_module": false,
      "unique_keys_contraints": [ "id" ],
      "enable_all_data_request": false,
      "auto_increment": {
        "start": 0,
        "prefix": "PACKAGES-TYPE-",
        "suffix": "",
        "format": "",
        "field_name": "id",
        "auto_generation_field_id": "product_packages_type_id",
        "length": 4
      }
    }
  },
  {
    "id": "payments_type",
    "version": "1.0.0",
    "meta_data": {
      "type": "object",
      "properties": {
        "id": {
          "type": "string"
        },
        "name": {
          "type": "string"
        },
        "settings": {
          "type": "object",
          "propertyNames": {
            "pattern": "^[A-Za-z_][A-Za-z0-9_]*$"
          }
        },
        "description": {
          "type": "string"
        }
      },
      "required": [ "id", "name" ]

    },
    "modules_information": {
      "identity": "id",
      "is_common_module": false,
      "unique_keys_contraints": [ "id" ],
      "enable_all_data_request": false,
      "auto_increment": {
        "start": 0,
        "prefix": "PAY-TYPE-",
        "suffix": "",
        "format": "",
        "field_name": "id",
        "auto_generation_field_id": "payment_type_id",
        "length": 4
      }
    }
  },

  {
    "id": "pellucid_file_systems",
    "version": "1.0.0",
    "meta_data": {
      "type": "object",
      "definitions": {
        "path": {
          "type": "object",
          "required": [ "absolute", "relative" ],
          "absolute": {
            "type": "string"
          }, 
          "relative": {
            "type": "string"
          }
        }
      },
      "properties": {
        "size": {
          "type": "long"
        },
        "id": {
          "type": "string"
        },
        "path": {
          "$ref": "#/definitions/path"
        },
        "name": {
          "type": "string"
        },
        "ext": {
          "type": "string"
        },
        "type": {
          "type": "string"
        },
        "content": {
          "type": "string"
        },
        "settings": {
          "type": "object",
          "propertyNames": {
            "pattern": "^[a-z_][a-z0-9_]*$"
          }
        }
      },
      "required": [ "id", "name", "path", "ext", "type" ]

    },
    "modules_information": {
      "identity": "id",
      "is_common_module": false,
      "unique_keys_contraints": [ "path.relative" ],
      "enable_all_data_request": false,
      "auto_increment": {
        "start": 0,
        "prefix": "FILES-",
        "suffix": "",
        "format": "",
        "field_name": "id",
        "auto_generation_field_id": "files_id",
        "length": 10
      }
    }
  },
  {
    "id": "units",
    "version": "1.0.0",
    "meta_data": {
      "type": "object",
      "properties": {
        "id": {
          "type": "string"
        },
        "name": {
          "type": "string"
        },
        "parent_id": {
          "type": "string"
        },
        "settings": {
          "type": "object",
          "propertyNames": {
            "pattern": "^[A-Za-z_][A-Za-z0-9_]*$"
          }
        },
        "description": {
          "type": "string"
        }
      },
      "required": [ "id", "name" ]

    },
    "modules_information": {
      "identity": "id",
      "is_common_module": false,
      "unique_keys_contraints": [ "id" ],
      "enable_all_data_request": false,
      "auto_increment": {
        "start": 0,
        "prefix": "UNTIS-",
        "suffix": "",
        "format": "",
        "field_name": "id",
        "auto_generation_field_id": "units_id",
        "length": 4
      }
    }
  },
  {
    "id": "unit_types",
    "version": "1.0.0",
    "meta_data": {
      "type": "object",
      "properties": {
        "id": {
          "type": "string"
        },
        "name": {
          "type": "string"
        },
        "description": {
          "type": "string"
        }
      },
      "required": [ "id", "name" ]

    },
    "modules_information": {
      "identity": "id",
      "is_common_module": false,
      "unique_keys_contraints": [ "id" ],
      "enable_all_data_request": false,
      "auto_increment": {
        "start": 0,
        "prefix": "UT-",
        "suffix": "",
        "format": "",
        "field_name": "id",
        "auto_generation_field_id": "unit_types_id",
        "length": 4
      }
    }
  },
  {
    "id": "payment_types",
    "version": "1.0.0",
    "meta_data": {
      "type": "object",
      "properties": {
        "id": {
          "type": "string"
        },
        "name": {
          "type": "string"
        },
        "description": {
          "type": "string"
        }
      },
      "required": [ "id", "name" ]

    },
    "modules_information": {
      "identity": "id",
      "is_common_module": false,
      "unique_keys_contraints": [ "id" ],
      "enable_all_data_request": false,
      "auto_increment": {
        "start": 0,
        "prefix": "PAYMENTS-",
        "suffix": "",
        "format": "",
        "field_name": "id",
        "auto_generation_field_id": "payment_types_id",
        "length": 4
      }
    }
  },
  {
    "id": "payment_status",
    "version": "1.0.0",
    "meta_data": {
      "type": "object",
      "properties": {
        "id": {
          "type": "string"
        },
        "name": {
          "type": "string"
        },
        "description": {
          "type": "string"
        }
      },
      "required": [ "id", "name" ]

    },
    "modules_information": {
      "identity": "id",
      "is_common_module": false,
      "unique_keys_contraints": [ "id" ],
      "enable_all_data_request": false
    }
  },
  {
    "id": "rooms",
    "version": "1.0.0",
    "meta_data": {
      "type": "object",
      "properties": {
        "id": {
          "type": "string"
        },
        "room_key": {
          "type": "string"
        },
        "name": {
          "type": "string"
        },
        "description": {
          "type": "string"
        }
      },
      "required": [ "id", "room_key", "name" ]

    },
    "modules_information": {
      "identity": "id",
      "is_common_module": false,
      "enable_all_data_request": false,
      "unique_keys_contraints": [ "room_key" ],
      "auto_increment": {
        "start": 0,
        "prefix": "ROOMS-",
        "suffix": "",
        "format": "",
        "field_name": "id",
        "auto_generation_field_id": "rooms_id",
        "length": 4
      }
    }
  },
  {
    "id": "rooms_type",
    "version": "1.0.0",
    "meta_data": {
      "type": "object",
      "properties": {
        "id": {
          "type": "string"
        },
        "type_id": {
          "type": "string"
        },
        "name": {
          "type": "string"
        },
        "description": {
          "type": "string"
        }
      },
      "required": [ "id", "type_id", "name" ]

    },
    "modules_information": {
      "identity": "id",
      "is_common_module": false,
      "enable_all_data_request": false,
      "unique_keys_contraints": [ "type_id" ],
      "auto_increment": {
        "start": 0,
        "prefix": "Rooms-TYPE-",
        "suffix": "",
        "format": "",
        "field_name": "id",
        "auto_generation_field_id": "rooms_type_id",
        "length": 4
      }
    }
  },
  {
    "id": "pellucid_taxonomy",
    "version": "1.0.0",
    "meta_data": {
      "type": "object",
      "definitions": {
        "structure": {
          "type": "object",
          "required": [ "model_name" ],
          "model_name": {
            "type": "string"
          },
          "system_defined": {
            "type": "object"
          },
          "user_defined": {
            "type": "object"
          }
        }
      },
      "required": [ "id", "version", "taxonomy" ],
      "properties": {
        "id": {
          "type": "string"
        },
        "version": {
          "type": "string",
          "pattern": "^[0-9]{1,3}.[0-9]{1,3}.[0-9]{1,3}$"
        },
        "taxonomy": {
          "type": "array",
          "items": { "$ref": "#/definitions/structure" }
        }

      }
    }
  }
]