[
  {
    "id": "client_applications",
    "version": "1.0.0",
    "meta_data": {
      "type": "object",
      "properties": {
        "id": {
          "type": "string"
        },
        "package_version": {
          "type": "string",
          "pattern": "^[0-9]{1,3}.[0-9]{1,3}.[0-9]{1,3}$"
        },
        "path": {
          "type": "string"
        },
        "url": {
          "type": "string"
        },
        "packages": {
          "type": "string"
        }
      },
      "required": [ "id", "package_version", "path", "url" ]

    },
    "modules_information": {
      "identity": "id",
      "is_common_module": false,
      "enable_all_data_request": false,
      "unique_keys_contraints": [ "package_version", "path", "url" ],
      "auto_increment": {
        "start": 0,
        "prefix": "PACKAGES-",
        "suffix": "",
        "format": "",
        "field_name": "id",
        "auto_generation_field_id": "app_packages_id",
        "length": 4
      }
    }
  },
  {
    "id": "active_client_applications",
    "version": "1.0.0",
    "meta_data": {
      "type": "object",
      "properties": {
        "id": {
          "type": "string"
        },
        "package_version": {
          "type": "string",
          "pattern": "^[0-9]{1,3}.[0-9]{1,3}.[0-9]{1,3}$"
        },
        "path": {
          "type": "string"
        },
        "disabled": {
          "type": "boolean",
          "default": false
        },
        "url": {
          "type": "string"
        }
      },
      "required": [ "id", "package_version", "path", "url" ]

    },
    "modules_information": {
      "identity": "id",
      "is_common_module": false,
      "enable_all_data_request": false,
      "unique_keys_contraints": [ "url" ],
      "auto_increment": {
        "start": 0,
        "prefix": "APPS-",
        "suffix": "",
        "format": "",
        "field_name": "id",
        "auto_generation_field_id": "app_deployment_id",
        "length": 4
      }
    }
  }
]