{
  "settings": {
    "SYSTEM": "{\"pellucid_logs\":{\"id\":\"pellucid_logs\",\"is_system\":true,\"version\":\"1.0.0\",\"meta_data\":{\"type\":\"object\",\"properties\":{\"id\":{\"type\":\"string\"},\"model_name\":{\"type\":\"string\"},\"event_type\":{\"type\":\"string\"},\"client\":{\"type\":\"string\"},\"content\":{\"type\":\"object\"},\"request\":{\"type\":\"object\"}},\"required\":[\"id\",\"model_name\",\"event_type\",\"client\"]},\"modules_information\":{}},\"pellucid_clients\":{\"id\":\"pellucid_clients\",\"is_system\":true,\"version\":\"1.0.0\",\"meta_data\":{\"type\":\"object\",\"properties\":{\"id\":{\"type\":\"string\"},\"name\":{\"type\":\"string\"},\"is_active\":{\"type\":\"boolean\"},\"settings\":{\"type\":\"object\"},\"information\":{\"type\":\"object\"}},\"required\":[\"id\",\"name\",\"is_active\",\"settings\"]},\"modules_information\":{}},\"pellucid_user_roles\":{\"id\":\"pellucid_user_roles\",\"is_system\":true,\"version\":\"1.0.0\",\"meta_data\":{\"type\":\"object\",\"properties\":{\"id\":{\"type\":\"string\"},\"name\":{\"type\":\"string\"},\"details\":{\"type\":\"object\"},\"client_id\":{\"type\":\"string\"}},\"required\":[\"id\",\"name\",\"details\",\"client_id\"]},\"modules_information\":{}},\"pellucid_users\":{\"id\":\"pellucid_users\",\"is_system\":true,\"version\":\"1.0.0\",\"meta_data\":{\"type\":\"object\",\"definitions\":{\"full_name\":{\"type\":\"object\",\"required\":[\"first_name\",\"last_name\"],\"first_name\":{\"type\":\"string\"},\"middle_name\":{\"type\":\"string\"},\"last_name\":{\"type\":\"string\"}}},\"properties\":{\"id\":{\"type\":\"string\"},\"email\":{\"type\":\"string\",\"format\":\"email\"},\"user_status\":{\"type\":\"string\"},\"password\":{\"type\":\"string\"},\"last_login\":{\"type\":\"string\"},\"user_type\":{\"type\":\"integer\"},\"user_role\":{\"type\":\"string\"},\"full_name\":{\"$ref\":\"#/definitions/full_name\"},\"client_id\":{\"type\":\"string\"},\"description\":{\"type\":\"string\"}},\"required\":[\"id\",\"password\",\"user_type\",\"email\",\"user_role\",\"user_status\",\"full_name\",\"client_id\"]},\"modules_information\":{}},\"pellucid_meta_data\":{\"id\":\"pellucid_meta_data\",\"valdate_schema\":true,\"version\":\"1.0.0\",\"meta_data\":{\"type\":\"object\",\"properties\":{\"id\":{\"type\":\"string\"},\"version\":{\"type\":\"string\",\"pattern\":\"^[0-9]{1,3}.[0-9]{1,3}.[0-9]{1,3}$\"},\"meta_data\":{\"type\":\"object\"},\"modules_information\":{\"type\":\"object\"}},\"required\":[\"id\",\"version\",\"meta_data\",\"modules_information\"]},\"modules_information\":{}},\"pellucid_administration_meta_data\":{\"id\":\"pellucid_administration_meta_data\",\"valdate_schema\":true,\"version\":\"1.0.0\",\"meta_data\":{\"type\":\"object\",\"properties\":{\"id\":{\"type\":\"string\"},\"version\":{\"type\":\"string\",\"pattern\":\"^[0-9]{1,3}.[0-9]{1,3}.[0-9]{1,3}$\"},\"meta_data\":{\"type\":\"object\"},\"modules_information\":{\"type\":\"object\"}},\"required\":[\"id\",\"version\",\"meta_data\",\"modules_information\"]},\"modules_information\":{}},\"pellucid_deployment_meta_data\":{\"id\":\"pellucid_deployment_meta_data\",\"is_system\":true,\"valdate_schema\":true,\"version\":\"1.0.0\",\"meta_data\":{\"type\":\"object\",\"properties\":{\"id\":{\"type\":\"string\"},\"version\":{\"type\":\"string\",\"pattern\":\"^[0-9]{1,3}.[0-9]{1,3}.[0-9]{1,3}$\"},\"meta_data\":{\"type\":\"object\"},\"modules_information\":{\"type\":\"object\"}},\"required\":[\"id\",\"version\",\"meta_data\",\"modules_information\"]},\"modules_information\":{}}}",
    "CLIENTS": "{\"pellucid\":{\"name\":\"pellucid\",\"active\":true,\"settings\":\"C:\\\\Mobile\\\\wwwroot/application/clients/pellucid/\",\"assets_path\":\"C:\\\\Mobile\\\\wwwroot/files/pellucid/\"},\"client_001\":{\"name\":\"Client with full modules\",\"active\":true,\"settings\":\"C:\\\\Mobile\\\\wwwroot/application/clients/client_001/\",\"assets_path\":\"C:\\\\Mobile\\\\wwwroot/files/client_001/\"},\"client_002\":{\"name\":\"Test client with no payment\",\"active\":true,\"settings\":\"C:\\\\Mobile\\\\wwwroot/application/clients/client_002/\",\"assets_path\":\"C:\\\\Mobile\\\\wwwroot/files/client_002/\"}}",
    "APPLICATION": "{\"BASE_PATH\":\"/v1/api/\",\"APP_AUTH_PATH\":\"/v1/api/token/authorise\",\"TIME_ZONE\":{\"COUNTRY_ZONE\":\"India Standard Time\",\"DATE_FORMAT\":\"yyyy-MM-dd HH:mm:ss\"}}",
    "ADMINISTRATION": "{\"orders\":{\"id\":\"orders\",\"version\":\"1.0.0\",\"meta_data\":{\"type\":\"object\",\"definitions\":{\"packages\":{\"type\":\"object\",\"properties\":{\"id\":{\"type\":\"string\"},\"type\":{\"type\":\"string\"},\"total_price\":{\"type\":\"number\"},\"price\":{\"type\":\"number\"},\"tax\":{\"type\":\"number\"},\"name\":{\"type\":\"string\"},\"quantity\":{\"type\":\"number\"}}}},\"properties\":{\"id\":{\"type\":\"string\"},\"packages\":{\"type\":\"array\",\"items\":{\"$ref\":\"#/definitions/packages\"}},\"price\":{\"type\":\"number\"},\"tax\":{\"type\":\"number\"},\"voucher\":{\"type\":\"object\"},\"patients\":{\"type\":\"object\"}},\"required\":[\"id\",\"packages\",\"price\",\"tax\",\"patients\"]},\"modules_information\":{\"identity\":\"id\",\"is_common_module\":false,\"unique_keys_contraints\":[\"id\"],\"enable_all_data_request\":false,\"auto_increment\":{\"start\":0,\"prefix\":\"ORDERS-HC-\",\"suffix\":\"\",\"format\":\"\",\"field_name\":\"id\",\"auto_generation_field_id\":\"orders_id\",\"length\":10}}},\"vouchers\":{\"id\":\"vouchers\",\"version\":\"1.0.0\",\"meta_data\":{\"type\":\"object\",\"properties\":{\"id\":{\"type\":\"string\"},\"type\":{\"type\":\"string\"},\"conditions\":{\"type\":\"objects\"},\"description\":{\"type\":\"string\"}},\"required\":[\"id\",\"name\",\"type\",\"conditions\"]},\"modules_information\":{\"identity\":\"id\",\"is_common_module\":false,\"unique_keys_contraints\":[\"id\"],\"enable_all_data_request\":false,\"auto_increment\":{\"start\":0,\"prefix\":\"VOUCHERS-\",\"suffix\":\"\",\"format\":\"\",\"field_name\":\"id\",\"auto_generation_field_id\":\"vouchers_id\",\"length\":20}}},\"product_packages\":{\"id\":\"product_packages\",\"version\":\"1.0.0\",\"meta_data\":{\"type\":\"object\",\"properties\":{\"id\":{\"type\":\"string\"},\"type\":{\"type\":\"string\"},\"price\":{\"type\":\"number\"},\"tax\":{\"type\":\"number\"},\"name\":{\"type\":\"string\"},\"description\":{\"type\":\"string\"}},\"required\":[\"id\",\"name\",\"type\",\"price\",\"tax\"]},\"modules_information\":{\"identity\":\"id\",\"is_common_module\":false,\"unique_keys_contraints\":[\"id\"],\"enable_all_data_request\":false,\"auto_increment\":{\"start\":0,\"prefix\":\"PACKAGES-\",\"suffix\":\"\",\"format\":\"\",\"field_name\":\"id\",\"auto_generation_field_id\":\"product_packages_id\",\"length\":4}}},\"product_packages_type\":{\"id\":\"product_packages_type\",\"version\":\"1.0.0\",\"meta_data\":{\"type\":\"object\",\"properties\":{\"id\":{\"type\":\"string\"},\"name\":{\"type\":\"string\"},\"description\":{\"type\":\"string\"}},\"required\":[\"id\",\"name\"]},\"modules_information\":{\"identity\":\"id\",\"is_common_module\":false,\"unique_keys_contraints\":[\"id\"],\"enable_all_data_request\":false,\"auto_increment\":{\"start\":0,\"prefix\":\"PACKAGES-TYPE-\",\"suffix\":\"\",\"format\":\"\",\"field_name\":\"id\",\"auto_generation_field_id\":\"product_packages_type_id\",\"length\":4}}},\"payments_type\":{\"id\":\"payments_type\",\"version\":\"1.0.0\",\"meta_data\":{\"type\":\"object\",\"properties\":{\"id\":{\"type\":\"string\"},\"name\":{\"type\":\"string\"},\"settings\":{\"type\":\"object\",\"propertyNames\":{\"pattern\":\"^[A-Za-z_][A-Za-z0-9_]*$\"}},\"description\":{\"type\":\"string\"}},\"required\":[\"id\",\"name\"]},\"modules_information\":{\"identity\":\"id\",\"is_common_module\":false,\"unique_keys_contraints\":[\"id\"],\"enable_all_data_request\":false,\"auto_increment\":{\"start\":0,\"prefix\":\"PAY-TYPE-\",\"suffix\":\"\",\"format\":\"\",\"field_name\":\"id\",\"auto_generation_field_id\":\"payment_type_id\",\"length\":4}}},\"pellucid_file_systems\":{\"id\":\"pellucid_file_systems\",\"version\":\"1.0.0\",\"meta_data\":{\"type\":\"object\",\"definitions\":{\"path\":{\"type\":\"object\",\"required\":[\"absolute\",\"relative\"],\"absolute\":{\"type\":\"string\"},\"relative\":{\"type\":\"string\"}}},\"properties\":{\"size\":{\"type\":\"long\"},\"id\":{\"type\":\"string\"},\"path\":{\"$ref\":\"#/definitions/path\"},\"name\":{\"type\":\"string\"},\"ext\":{\"type\":\"string\"},\"type\":{\"type\":\"string\"},\"content\":{\"type\":\"string\"},\"settings\":{\"type\":\"object\",\"propertyNames\":{\"pattern\":\"^[a-z_][a-z0-9_]*$\"}}},\"required\":[\"id\",\"name\",\"path\",\"ext\",\"type\"]},\"modules_information\":{\"identity\":\"id\",\"is_common_module\":false,\"unique_keys_contraints\":[\"path.relative\"],\"enable_all_data_request\":false,\"auto_increment\":{\"start\":0,\"prefix\":\"FILES-\",\"suffix\":\"\",\"format\":\"\",\"field_name\":\"id\",\"auto_generation_field_id\":\"files_id\",\"length\":10}}},\"units\":{\"id\":\"units\",\"version\":\"1.0.0\",\"meta_data\":{\"type\":\"object\",\"properties\":{\"id\":{\"type\":\"string\"},\"name\":{\"type\":\"string\"},\"parent_id\":{\"type\":\"string\"},\"settings\":{\"type\":\"object\",\"propertyNames\":{\"pattern\":\"^[A-Za-z_][A-Za-z0-9_]*$\"}},\"description\":{\"type\":\"string\"}},\"required\":[\"id\",\"name\"]},\"modules_information\":{\"identity\":\"id\",\"is_common_module\":false,\"unique_keys_contraints\":[\"id\"],\"enable_all_data_request\":false,\"auto_increment\":{\"start\":0,\"prefix\":\"UNTIS-\",\"suffix\":\"\",\"format\":\"\",\"field_name\":\"id\",\"auto_generation_field_id\":\"units_id\",\"length\":4}}},\"unit_types\":{\"id\":\"unit_types\",\"version\":\"1.0.0\",\"meta_data\":{\"type\":\"object\",\"properties\":{\"id\":{\"type\":\"string\"},\"name\":{\"type\":\"string\"},\"description\":{\"type\":\"string\"}},\"required\":[\"id\",\"name\"]},\"modules_information\":{\"identity\":\"id\",\"is_common_module\":false,\"unique_keys_contraints\":[\"id\"],\"enable_all_data_request\":false,\"auto_increment\":{\"start\":0,\"prefix\":\"UT-\",\"suffix\":\"\",\"format\":\"\",\"field_name\":\"id\",\"auto_generation_field_id\":\"unit_types_id\",\"length\":4}}},\"payment_types\":{\"id\":\"payment_types\",\"version\":\"1.0.0\",\"meta_data\":{\"type\":\"object\",\"properties\":{\"id\":{\"type\":\"string\"},\"name\":{\"type\":\"string\"},\"description\":{\"type\":\"string\"}},\"required\":[\"id\",\"name\"]},\"modules_information\":{\"identity\":\"id\",\"is_common_module\":false,\"unique_keys_contraints\":[\"id\"],\"enable_all_data_request\":false,\"auto_increment\":{\"start\":0,\"prefix\":\"PAYMENTS-\",\"suffix\":\"\",\"format\":\"\",\"field_name\":\"id\",\"auto_generation_field_id\":\"payment_types_id\",\"length\":4}}},\"payment_status\":{\"id\":\"payment_status\",\"version\":\"1.0.0\",\"meta_data\":{\"type\":\"object\",\"properties\":{\"id\":{\"type\":\"string\"},\"name\":{\"type\":\"string\"},\"description\":{\"type\":\"string\"}},\"required\":[\"id\",\"name\"]},\"modules_information\":{\"identity\":\"id\",\"is_common_module\":false,\"unique_keys_contraints\":[\"id\"],\"enable_all_data_request\":false}},\"rooms\":{\"id\":\"rooms\",\"version\":\"1.0.0\",\"meta_data\":{\"type\":\"object\",\"properties\":{\"id\":{\"type\":\"string\"},\"room_key\":{\"type\":\"string\"},\"name\":{\"type\":\"string\"},\"description\":{\"type\":\"string\"}},\"required\":[\"id\",\"room_key\",\"name\"]},\"modules_information\":{\"identity\":\"id\",\"is_common_module\":false,\"enable_all_data_request\":false,\"unique_keys_contraints\":[\"room_key\"],\"auto_increment\":{\"start\":0,\"prefix\":\"ROOMS-\",\"suffix\":\"\",\"format\":\"\",\"field_name\":\"id\",\"auto_generation_field_id\":\"rooms_id\",\"length\":4}}},\"rooms_type\":{\"id\":\"rooms_type\",\"version\":\"1.0.0\",\"meta_data\":{\"type\":\"object\",\"properties\":{\"id\":{\"type\":\"string\"},\"type_id\":{\"type\":\"string\"},\"name\":{\"type\":\"string\"},\"description\":{\"type\":\"string\"}},\"required\":[\"id\",\"type_id\",\"name\"]},\"modules_information\":{\"identity\":\"id\",\"is_common_module\":false,\"enable_all_data_request\":false,\"unique_keys_contraints\":[\"type_id\"],\"auto_increment\":{\"start\":0,\"prefix\":\"Rooms-TYPE-\",\"suffix\":\"\",\"format\":\"\",\"field_name\":\"id\",\"auto_generation_field_id\":\"rooms_type_id\",\"length\":4}}},\"pellucid_taxonomy\":{\"id\":\"pellucid_taxonomy\",\"version\":\"1.0.0\",\"meta_data\":{\"type\":\"object\",\"definitions\":{\"structure\":{\"type\":\"object\",\"required\":[\"model_name\"],\"model_name\":{\"type\":\"string\"},\"system_defined\":{\"type\":\"object\"},\"user_defined\":{\"type\":\"object\"}}},\"required\":[\"id\",\"version\",\"taxonomy\"],\"properties\":{\"id\":{\"type\":\"string\"},\"version\":{\"type\":\"string\",\"pattern\":\"^[0-9]{1,3}.[0-9]{1,3}.[0-9]{1,3}$\"},\"taxonomy\":{\"type\":\"array\",\"items\":{\"$ref\":\"#/definitions/structure\"}}}}}}",
    "DEPLOYMENT": "{\"client_applications\":{\"id\":\"client_applications\",\"version\":\"1.0.0\",\"meta_data\":{\"type\":\"object\",\"properties\":{\"id\":{\"type\":\"string\"},\"package_version\":{\"type\":\"string\",\"pattern\":\"^[0-9]{1,3}.[0-9]{1,3}.[0-9]{1,3}$\"},\"path\":{\"type\":\"string\"},\"url\":{\"type\":\"string\"},\"packages\":{\"type\":\"string\"}},\"required\":[\"id\",\"package_version\",\"path\",\"url\"]},\"modules_information\":{\"identity\":\"id\",\"is_common_module\":false,\"enable_all_data_request\":false,\"unique_keys_contraints\":[\"package_version\",\"path\",\"url\"],\"auto_increment\":{\"start\":0,\"prefix\":\"PACKAGES-\",\"suffix\":\"\",\"format\":\"\",\"field_name\":\"id\",\"auto_generation_field_id\":\"app_packages_id\",\"length\":4}},\"created\":\"2021-03-16 08:55:20\",\"updated\":\"2021-03-16 08:55:20\"},\"active_client_applications\":{\"id\":\"active_client_applications\",\"version\":\"1.0.0\",\"meta_data\":{\"type\":\"object\",\"properties\":{\"id\":{\"type\":\"string\"},\"package_version\":{\"type\":\"string\",\"pattern\":\"^[0-9]{1,3}.[0-9]{1,3}.[0-9]{1,3}$\"},\"path\":{\"type\":\"string\"},\"disabled\":{\"type\":\"boolean\",\"default\":false},\"url\":{\"type\":\"string\"}},\"required\":[\"id\",\"package_version\",\"path\",\"url\"]},\"modules_information\":{\"identity\":\"id\",\"is_common_module\":false,\"enable_all_data_request\":false,\"unique_keys_contraints\":[\"url\"],\"auto_increment\":{\"start\":0,\"prefix\":\"APPS-\",\"suffix\":\"\",\"format\":\"\",\"field_name\":\"id\",\"auto_generation_field_id\":\"app_deployment_id\",\"length\":4}},\"created\":\"2021-03-16 08:55:20\",\"updated\":\"2021-03-16 08:55:20\"}}",
    "ECOMMERCE": "{\"ecommerce_baskets\":{\"id\":\"ecommerce_baskets\",\"version\":\"2.0.0\",\"meta_data\":{\"type\":\"object\",\"definitions\":{\"packages\":{\"type\":\"object\",\"properties\":{\"code\":{\"type\":\"string\"},\"name\":{\"type\":\"string\"},\"description\":{\"type\":\"string\"},\"additional_info\":{\"type\":\"object\"},\"price\":{\"type\":\"number\"},\"discount\":{\"type\":\"number\"},\"tax\":{\"type\":\"number\"},\"quantity\":{\"type\":\"number\"}}}},\"properties\":{\"id\":{\"type\":\"string\"},\"packages\":{\"type\":\"array\",\"items\":{\"$ref\":\"#/definitions/packages\"}},\"total_price\":{\"type\":\"number\"},\"balance_total_price\":{\"type\":\"number\"},\"credited_total_price\":{\"type\":\"number\"},\"debited_total_price\":{\"type\":\"number\"},\"payment_settings\":{\"type\":\"object\"},\"total_tax\":{\"type\":\"number\"},\"status\":{\"type\":\"string\"},\"patient_mrn\":{\"type\":\"string\"},\"registration_id\":{\"type\":\"string\"},\"transactions\":{\"type\":\"object\"}},\"required\":[\"id\",\"packages\",\"total_price\",\"payment_settings\",\"balance_total_price\",\"credited_total_price\",\"debited_total_price\",\"total_tax\",\"patient_mrn\",\"registration_id\",\"status\"]},\"modules_information\":{\"identity\":\"id\",\"is_common_module\":false,\"unique_keys_contraints\":[\"id\"],\"enable_all_data_request\":false,\"auto_increment\":{\"start\":0,\"prefix\":\"BASKET-\",\"suffix\":\"\",\"format\":\"\",\"field_name\":\"id\",\"auto_generation_field_id\":\"ecommerce_baskets_id\",\"length\":10}}},\"ecommerce_transactions\":{\"id\":\"ecommerce_transactions\",\"version\":\"2.0.0\",\"meta_data\":{\"type\":\"object\",\"definitions\":{\"baskets\":{\"type\":\"object\",\"properties\":{\"id\":{\"type\":\"string\"}}}},\"properties\":{\"id\":{\"type\":\"string\"},\"paid_amount\":{\"type\":\"number\"},\"payment_auth_id\":{\"type\":\"string\"},\"basket_id\":{\"type\":\"string\"},\"additional_information\":{\"type\":\"object\"},\"transaction_type\":{\"type\":\"string\"}},\"required\":[\"id\",\"paid_amount\",\"payment_auth_id\",\"basket_id\",\"transaction_type\"]},\"modules_information\":{\"identity\":\"id\",\"is_common_module\":false,\"unique_keys_contraints\":[\"id\"],\"enable_all_data_request\":false,\"auto_increment\":{\"start\":0,\"prefix\":\"TRANSACTIONS-\",\"suffix\":\"\",\"format\":\"\",\"field_name\":\"id\",\"auto_generation_field_id\":\"ecommerce_transactions_id\",\"length\":10}}},\"ecommerce_payments\":{\"id\":\"ecommerce_payments\",\"version\":\"2.0.0\",\"meta_data\":{\"type\":\"object\",\"definitions\":{},\"properties\":{\"id\":{\"type\":\"string\"},\"items\":{\"type\":\"array\",\"items\":{\"type\":\"object\"}},\"total_amount\":{\"type\":\"number\"},\"payment_information\":{\"type\":\"object\"},\"additional_information\":{\"type\":\"object\"},\"transaction_type\":{\"type\":\"string\"},\"registration_id\":{\"type\":\"string\"},\"payment_process_mode\":{\"type\":\"string\"},\"users\":{\"type\":\"object\"}},\"required\":[\"payment_process_mode\",\"id\",\"items\",\"registration_id\",\"total_amount\",\"payment_information\",\"transaction_type\"]},\"modules_information\":{\"identity\":\"id\",\"is_common_module\":false,\"unique_keys_contraints\":[\"id\"],\"enable_all_data_request\":false,\"auto_increment\":{\"start\":0,\"prefix\":\"PAYMENT-AUTH-\",\"suffix\":\"\",\"format\":\"\",\"field_name\":\"id\",\"auto_generation_field_id\":\"ecommerce_payments_id\",\"length\":10}}}}"
  }
}